"Rank","Driver ID","Name","Overall Points"
13,"117","Alain Prost",798.5
15,"102","Ayrton Senna",614.0
17,"14","David Coulthard",535.0
19,"137","Nelson Piquet",485.5
20,"95","Nigel Mansell",482.0
21,"182","Niki Lauda",420.5
22,"57","Mika Häkkinen",420.0
24,"77","Gerhard Berger",385.0
25,"71","Damon Hill",360.0
26,"328","Jackie Stewart",360.0
27,"23","Ralf Schumacher",329.0
29,"199","Carlos Reutemann",310.0
30,"31","Juan Pablo Montoya",307.0
31,"289","Graham Hill",289.0
32,"119","Riccardo Patrese",281.0
33,"224","Emerson Fittipaldi",281.0
35,"579","Juan Fangio",279.14
36,"21","Giancarlo Fisichella",275.0
38,"373","Jim Clark",274.0
39,"356","Jack Brabham",261.0
